…
Start an exploratory analysis in the data;

Setting the “weights” and create a model to help filter some devices;

Conclusion: choosing “the best” device.

1. Getting the data by web scraping

Reading the main URL to obtain data about html page and then start web scraping process

aparelhos<- tibble::tibble(url = unique(paste('https://www.tudocelular.com', rvest::read_html('https://www.tudocelular.com/celulares/fichas-tecnicas.html') %>% rvest::html_elements(xpath = '//*[@id="cellphones_list"]/article') %>% rvest::html_nodes('a') %>% rvest::html_attr('href'),sep = ''))) %>%
  dplyr::filter(stringr::str_detect(string = url, pattern = 'ficha')) %>% dplyr::mutate(url = as.character(url))
aparelhos

## # A tibble: 51 × 1
##    url                                                                          
##    <chr>                                                                        
##  1 https://www.tudocelular.com/Gionee/fichas-tecnicas/n7583/Gionee-G13-Pro.html 
##  2 https://www.tudocelular.com/vivo/fichas-tecnicas/n7581/vivo-Y75-5G.html      
##  3 https://www.tudocelular.com/TECNO/fichas-tecnicas/n7580/TECNO-Pop-5X.html    
##  4 https://www.tudocelular.com/Redmi/fichas-tecnicas/n7579/Redmi-Note-11S.html  
##  5 https://www.tudocelular.com/Redmi/fichas-tecnicas/n7578/Redmi-Note-11-Pro.ht…
##  6 https://www.tudocelular.com/Redmi/fichas-tecnicas/n7577/Redmi-Note-11-Pro-5G…
##  7 https://www.tudocelular.com/Redmi/fichas-tecnicas/n7576/Redmi-Note-11.html   
##  8 https://www.tudocelular.com/Micromax/fichas-tecnicas/n7572/Micromax-In-note-…
##  9 https://www.tudocelular.com/vivo/fichas-tecnicas/n7567/vivo-Y21A.html        
## 10 https://www.tudocelular.com/vivo/fichas-tecnicas/n7568/vivo-Y33.html         
## # … with 41 more rows
…
