…
```r
url <- 'https://www.pneustore.com.br/categorias/pneus-de-carro/pneus-175-65r14/produto/pneu-firestone-aro-14-f-600-175-65r14-82t-10100082'

base <- read_html(url) %>%
  html_node("table") %>%
  html_table() %>%
  as_tibble() 

base %>% rename('variavel'='X1','resultado'='X2')
```

```
## # A tibble: 25 × 2
##    variavel             resultado                                             
##    <chr>                <chr>                                                 
##  1 Marca                "FIRESTONE"                                           
##  2 Fabricante           "BRIDGESTONE"                                         
##  3 Modelo               "F-600"                                               
##  4 Medida               "175/65R14"                                           
##  5 Largura              "175mm"                                               
##  6 Perfil               "65%"                                                 
##  7 Aro                  "14"                                                  
##  8 Diâmetro total em mm "583.1"                                               
##  9 Índice de peso       "82 - 475 kg\n\t\t\t\t\t\t\t,\n\t\t\t\t\t\t\t82"      
## 10 Índice de velocidade "T - 190 km/h\n\t\t\t\t\t\t\t\t\t,\n\t\t\t\t\t\t\t\t\…
## # … with 15 more rows
```
